{ 
    "instagram": ["com.instaero.android(15.0.1)","com.instagram.android(15.0.1)","com.instaero.android(16.0.2-latest)","com.instagram.android(16.0.2-latest)"],
    "whatsapp": ["com.aerolla_8.87-latest","com.aero_8.87-latest","com.whatsapp_8.87-latest"],
    "twitter": ["com.aerowitter.android(0.2-latest)","com.twitter.android(0.2-latest)"]
}

